[
  {
    "class":"firrtl.EmitCircuitAnnotation",
    "emitter":"firrtl.VerilogEmitter"
  },
  {
    "class":"firrtl.transforms.BlackBoxTargetDirAnno",
    "targetDir":"generated/"
  },
  {
    "class":"firrtl.transforms.CombinationalPath",
    "sink":"~DPIM|DPIM>io_cmOut_26",
    "sources":[
      "~DPIM|DPIM>io_cme",
      "~DPIM|DPIM>io_func",
      "~DPIM|DPIM>io_cmIn_26"
    ]
  },
  {
    "class":"firrtl.transforms.CombinationalPath",
    "sink":"~DPIM|DPIM>io_cmOut_1",
    "sources":[
      "~DPIM|DPIM>io_cme",
      "~DPIM|DPIM>io_func",
      "~DPIM|DPIM>io_cmIn_1"
    ]
  },
  {
    "class":"firrtl.transforms.CombinationalPath",
    "sink":"~DPIM|DPIM>io_cmOut_27",
    "sources":[
      "~DPIM|DPIM>io_cme",
      "~DPIM|DPIM>io_func",
      "~DPIM|DPIM>io_cmIn_27"
    ]
  },
  {
    "class":"firrtl.transforms.CombinationalPath",
    "sink":"~DPIM|DPIM>io_cmOut_30",
    "sources":[
      "~DPIM|DPIM>io_cme",
      "~DPIM|DPIM>io_func",
      "~DPIM|DPIM>io_cmIn_30"
    ]
  },
  {
    "class":"firrtl.transforms.CombinationalPath",
    "sink":"~DPIM|DPIM>io_cmOut_25",
    "sources":[
      "~DPIM|DPIM>io_cme",
      "~DPIM|DPIM>io_func",
      "~DPIM|DPIM>io_cmIn_25"
    ]
  },
  {
    "class":"firrtl.transforms.CombinationalPath",
    "sink":"~DPIM|DPIM>io_q",
    "sources":[
      "~DPIM|DPIM>io_we",
      "~DPIM|DPIM>io_d"
    ]
  },
  {
    "class":"firrtl.transforms.CombinationalPath",
    "sink":"~DPIM|DPIM>io_cmOut_5",
    "sources":[
      "~DPIM|DPIM>io_cme",
      "~DPIM|DPIM>io_func",
      "~DPIM|DPIM>io_cmIn_5"
    ]
  },
  {
    "class":"firrtl.transforms.CombinationalPath",
    "sink":"~DPIM|DPIM>io_cmOut_22",
    "sources":[
      "~DPIM|DPIM>io_cme",
      "~DPIM|DPIM>io_func",
      "~DPIM|DPIM>io_cmIn_22"
    ]
  },
  {
    "class":"firrtl.transforms.CombinationalPath",
    "sink":"~DPIM|DPIM>io_cmOut_6",
    "sources":[
      "~DPIM|DPIM>io_cme",
      "~DPIM|DPIM>io_func",
      "~DPIM|DPIM>io_cmIn_6"
    ]
  },
  {
    "class":"firrtl.transforms.CombinationalPath",
    "sink":"~DPIM|DPIM>io_cmOut_16",
    "sources":[
      "~DPIM|DPIM>io_cme",
      "~DPIM|DPIM>io_func",
      "~DPIM|DPIM>io_cmIn_16"
    ]
  },
  {
    "class":"firrtl.transforms.CombinationalPath",
    "sink":"~DPIM|DPIM>io_cmOut_9",
    "sources":[
      "~DPIM|DPIM>io_cme",
      "~DPIM|DPIM>io_func",
      "~DPIM|DPIM>io_cmIn_9"
    ]
  },
  {
    "class":"firrtl.transforms.CombinationalPath",
    "sink":"~DPIM|DPIM>io_cmOut_29",
    "sources":[
      "~DPIM|DPIM>io_cme",
      "~DPIM|DPIM>io_func",
      "~DPIM|DPIM>io_cmIn_29"
    ]
  },
  {
    "class":"firrtl.transforms.CombinationalPath",
    "sink":"~DPIM|DPIM>io_cmOut_4",
    "sources":[
      "~DPIM|DPIM>io_cme",
      "~DPIM|DPIM>io_func",
      "~DPIM|DPIM>io_cmIn_4"
    ]
  },
  {
    "class":"firrtl.transforms.CombinationalPath",
    "sink":"~DPIM|DPIM>io_cmOut_13",
    "sources":[
      "~DPIM|DPIM>io_cme",
      "~DPIM|DPIM>io_func",
      "~DPIM|DPIM>io_cmIn_13"
    ]
  },
  {
    "class":"firrtl.transforms.CombinationalPath",
    "sink":"~DPIM|DPIM>io_cmOut_10",
    "sources":[
      "~DPIM|DPIM>io_cme",
      "~DPIM|DPIM>io_func",
      "~DPIM|DPIM>io_cmIn_10"
    ]
  },
  {
    "class":"firrtl.transforms.CombinationalPath",
    "sink":"~DPIM|DPIM>io_cmOut_15",
    "sources":[
      "~DPIM|DPIM>io_cme",
      "~DPIM|DPIM>io_func",
      "~DPIM|DPIM>io_cmIn_15"
    ]
  },
  {
    "class":"firrtl.transforms.CombinationalPath",
    "sink":"~DPIM|DPIM>io_cmOut_7",
    "sources":[
      "~DPIM|DPIM>io_cme",
      "~DPIM|DPIM>io_func",
      "~DPIM|DPIM>io_cmIn_7"
    ]
  },
  {
    "class":"firrtl.transforms.CombinationalPath",
    "sink":"~DPIM|DPIM>io_cmOut_18",
    "sources":[
      "~DPIM|DPIM>io_cme",
      "~DPIM|DPIM>io_func",
      "~DPIM|DPIM>io_cmIn_18"
    ]
  },
  {
    "class":"firrtl.transforms.CombinationalPath",
    "sink":"~DPIM|DPIM>io_cmOut_8",
    "sources":[
      "~DPIM|DPIM>io_cme",
      "~DPIM|DPIM>io_func",
      "~DPIM|DPIM>io_cmIn_8"
    ]
  },
  {
    "class":"firrtl.transforms.CombinationalPath",
    "sink":"~DPIM|DPIM>io_cmOut_2",
    "sources":[
      "~DPIM|DPIM>io_cme",
      "~DPIM|DPIM>io_func",
      "~DPIM|DPIM>io_cmIn_2"
    ]
  },
  {
    "class":"firrtl.transforms.CombinationalPath",
    "sink":"~DPIM|DPIM>io_cmOut_19",
    "sources":[
      "~DPIM|DPIM>io_cme",
      "~DPIM|DPIM>io_func",
      "~DPIM|DPIM>io_cmIn_19"
    ]
  },
  {
    "class":"firrtl.transforms.CombinationalPath",
    "sink":"~DPIM|DPIM>io_cmOut_21",
    "sources":[
      "~DPIM|DPIM>io_cme",
      "~DPIM|DPIM>io_func",
      "~DPIM|DPIM>io_cmIn_21"
    ]
  },
  {
    "class":"firrtl.transforms.CombinationalPath",
    "sink":"~DPIM|DPIM>io_cmOut_14",
    "sources":[
      "~DPIM|DPIM>io_cme",
      "~DPIM|DPIM>io_func",
      "~DPIM|DPIM>io_cmIn_14"
    ]
  },
  {
    "class":"firrtl.transforms.CombinationalPath",
    "sink":"~DPIM|DPIM>io_cmOut_28",
    "sources":[
      "~DPIM|DPIM>io_cme",
      "~DPIM|DPIM>io_func",
      "~DPIM|DPIM>io_cmIn_28"
    ]
  },
  {
    "class":"firrtl.transforms.CombinationalPath",
    "sink":"~DPIM|DPIM>io_cmOut_0",
    "sources":[
      "~DPIM|DPIM>io_cme",
      "~DPIM|DPIM>io_func",
      "~DPIM|DPIM>io_cmIn_0"
    ]
  },
  {
    "class":"firrtl.transforms.CombinationalPath",
    "sink":"~DPIM|DPIM>io_cmOut_31",
    "sources":[
      "~DPIM|DPIM>io_cme",
      "~DPIM|DPIM>io_func",
      "~DPIM|DPIM>io_cmIn_31"
    ]
  },
  {
    "class":"firrtl.transforms.CombinationalPath",
    "sink":"~DPIM|DPIM>io_cmOut_17",
    "sources":[
      "~DPIM|DPIM>io_cme",
      "~DPIM|DPIM>io_func",
      "~DPIM|DPIM>io_cmIn_17"
    ]
  },
  {
    "class":"firrtl.transforms.CombinationalPath",
    "sink":"~DPIM|DPIM>io_cmOut_24",
    "sources":[
      "~DPIM|DPIM>io_cme",
      "~DPIM|DPIM>io_func",
      "~DPIM|DPIM>io_cmIn_24"
    ]
  },
  {
    "class":"firrtl.transforms.CombinationalPath",
    "sink":"~DPIM|DPIM>io_cmOut_23",
    "sources":[
      "~DPIM|DPIM>io_cme",
      "~DPIM|DPIM>io_func",
      "~DPIM|DPIM>io_cmIn_23"
    ]
  },
  {
    "class":"firrtl.transforms.CombinationalPath",
    "sink":"~DPIM|DPIM>io_cmOut_12",
    "sources":[
      "~DPIM|DPIM>io_cme",
      "~DPIM|DPIM>io_func",
      "~DPIM|DPIM>io_cmIn_12"
    ]
  },
  {
    "class":"firrtl.transforms.CombinationalPath",
    "sink":"~DPIM|DPIM>io_cmOut_11",
    "sources":[
      "~DPIM|DPIM>io_cme",
      "~DPIM|DPIM>io_func",
      "~DPIM|DPIM>io_cmIn_11"
    ]
  },
  {
    "class":"firrtl.transforms.CombinationalPath",
    "sink":"~DPIM|DPIM>io_cmOut_3",
    "sources":[
      "~DPIM|DPIM>io_cme",
      "~DPIM|DPIM>io_func",
      "~DPIM|DPIM>io_cmIn_3"
    ]
  },
  {
    "class":"firrtl.transforms.CombinationalPath",
    "sink":"~DPIM|DPIM>io_cmOut_20",
    "sources":[
      "~DPIM|DPIM>io_cme",
      "~DPIM|DPIM>io_func",
      "~DPIM|DPIM>io_cmIn_20"
    ]
  }
]